bomberman_student_2024/bomberman_basys3/.Xil/Vivado-6602-Samsung-SmartFridge/hw_ila_data_1/zip_work/waveform.vcd
$date
        2024-Nov-22 17:11:37
$end
$version
        Vivado v2024.1 (64-bit)
$end
$timescale
        1ps
$end
$scope module dut $end
$var reg 10 " x [9:0] $end
$var reg 10 , y [9:0] $end
$var reg 1 6 p_c_down $end
$var reg 1 7 p_c_up $end
$var reg 1 8 w_en $end
$var reg 1 9 p_c_left $end
$var reg 2 : e_cd_reg [1:0] $end
$var reg 1 < <const0>_1 $end
$var reg 1 = <const0>_2 $end
$var reg 1 > <const0>_3 $end
$var reg 1 ? <const0>_4 $end
$var reg 1 @ <const0>_5 $end
$var reg 1 A <const0>_6 $end
$var reg 1 B <const0>_7 $end
$var reg 1 C <const0>_8 $end
$var reg 1 D p_c_right $end
$var reg 1 E <const0>_9 $end
$var reg 1 F <const0>_10 $end
$var reg 1 G <const0>_11 $end
$var reg 1 H <const0>_12 $end
$var reg 1 I <const0>_13 $end
$var reg 1 J <const0>_14 $end
$var reg 1 K <const0>_15 $end
$var reg 1 L <const0>_16 $end
$var reg 1 M <const0>_17 $end
$var reg 4 N move_cnt_reg [3:0] $end
$var reg 1 R <const0>_18 $end
$var reg 1 S <const0>_19 $end
$var reg 1 T <const0>_20 $end
$var reg 1 U <const0>_21 $end
$var reg 1 V <const0>_22 $end
$var reg 1 W <const0>_23 $end
$var reg 1 X <const0>_24 $end
$var reg 1 Y <const0>_25 $end
$var reg 22 Z motion_timer_reg [21:0] $end
$var reg 3 p e_state_reg [2:0] $end
$var reg 1 s <const0>_26 $end
$var reg 1 t <const0>_27 $end
$var reg 1 u <const0>_28 $end
$var reg 1 v <const0>_29 $end
$var reg 1 w <const0>_30 $end
$var reg 1 x <const0>_31 $end
$var reg 1 y <const0>_32 $end
$var reg 1 z <const0>_33 $end
$var reg 1 { <const0>_34 $end
$var reg 1 | <const0>_35 $end
$var reg 1 } <const0>_36 $end
$var reg 1 ~ <const0>_37 $end
$var reg 1 !" <const0>_38 $end
$var reg 1 "" <const0>_39 $end
$var reg 1 #" <const0>_40 $end
$var reg 1 $" <const0>_41 $end
$var reg 1 %" <const0>_42 $end
$var reg 1 &" <const0>_43 $end
$var reg 1 '" <const0> $end
$var reg 16 (" random_16_1 [15:0] $end
$var reg 16 8" random_16 [15:0] $end
$var reg 16 H" data [15:0] $end
$var reg 1 X" _TRIGGER $end
$var reg 1 Y" _WINDOW $end
$var reg 1 Z" _GAP $end
$upscope $end
$enddefinitions $end
#0
$dumpvars
b101001000 "
b10110011 ,
06
07
18
19
b10 :
0<
0=
0>
0?
0@
0A
0B
0C
1D
0E
0F
0G
0H
0I
0J
0K
0L
0M
b100 N
0R
0S
0T
0U
0V
0W
0X
0Y
b111000100011001100110 Z
b0 p
0s
0t
0u
0v
0w
0x
0y
0z
0{
0|
0}
0~
0!"
0""
0#"
0$"
0%"
0&"
0'"
b1010010100010111 ("
b1010010100010111 8"
b100101000101111 H"
0X"
1Y"
0Z"
$end
#1
b101001001 "
b111000100011001100111 Z
b100101000101111 ("
b100101000101111 8"
b1001010001011110 H"
#2
b111000100011001101000 Z
b1001010001011110 ("
b1001010001011110 8"
b10100010111101 H"
#3
b111000100011001101001 Z
b10100010111101 ("
b10100010111101 8"
b101000101111011 H"
#4
b111000100011001101010 Z
b101000101111011 ("
b101000101111011 8"
b1010001011110111 H"
#5
b101001010 "
b111000100011001101011 Z
b1010001011110111 ("
b1010001011110111 8"
b100010111101110 H"
#6
b111000100011001101100 Z
b100010111101110 ("
b100010111101110 8"
b1000101111011101 H"
#7
b111000100011001101101 Z
b1000101111011101 ("
b1000101111011101 8"
b1011110111011 H"
#8
b111000100011001101110 Z
b1011110111011 ("
b1011110111011 8"
b10111101110110 H"
#9
b101001011 "
b111000100011001101111 Z
b10111101110110 ("
b10111101110110 8"
b101111011101100 H"
#10
b111000100011001110000 Z
b101111011101100 ("
b101111011101100 8"
b1011110111011000 H"
#11
b111000100011001110001 Z
b1011110111011000 ("
b1011110111011000 8"
b111101110110000 H"
#12
b111000100011001110010 Z
b111101110110000 ("
b111101110110000 8"
b1111011101100000 H"
#13
b101001100 "
b111000100011001110011 Z
b1111011101100000 ("
b1111011101100000 8"
b1110111011000000 H"
#14
b111000100011001110100 Z
b1110111011000000 ("
b1110111011000000 8"
b1101110110000001 H"
#15
b111000100011001110101 Z
b1101110110000001 ("
b1101110110000001 8"
b1011101100000011 H"
#16
b111000100011001110110 Z
b1011101100000011 ("
b1011101100000011 8"
b111011000000111 H"
#17
b101001101 "
b111000100011001110111 Z
b111011000000111 ("
b111011000000111 8"
b1110110000001111 H"
#18
b111000100011001111000 Z
b1110110000001111 ("
b1110110000001111 8"
b1101100000011111 H"
#19
b111000100011001111001 Z
b1101100000011111 ("
b1101100000011111 8"
b1011000000111110 H"
#20
b111000100011001111010 Z
b1011000000111110 ("
b1011000000111110 8"
b110000001111101 H"
#21
b101001110 "
b111000100011001111011 Z
b110000001111101 ("
b110000001111101 8"
b1100000011111011 H"
#22
b111000100011001111100 Z
b1100000011111011 ("
b1100000011111011 8"
b1000000111110111 H"
#23
b111000100011001111101 Z
b1000000111110111 ("
b1000000111110111 8"
b1111101111 H"
#24
b111000100011001111110 Z
b1111101111 ("
b1111101111 8"
b11111011110 H"
#25
b101001111 "
b111000100011001111111 Z
b11111011110 ("
b11111011110 8"
b111110111101 H"
#26
b111000100011010000000 Z
b111110111101 ("
b111110111101 8"
b1111101111011 H"
#27
b111000100011010000001 Z
b1111101111011 ("
b1111101111011 8"
b11111011110110 H"
#28
b111000100011010000010 Z
b11111011110110 ("
b11111011110110 8"
b111110111101101 H"
#29
b101010000 "
b111000100011010000011 Z
b111110111101101 ("
b111110111101101 8"
b1111101111011011 H"
#30
b111000100011010000100 Z
b1111101111011011 ("
b1111101111011011 8"
b1111011110110111 H"
#31
b111000100011010000101 Z
b1111011110110111 ("
b1111011110110111 8"
b1110111101101110 H"
#32
b111000100011010000110 Z
b1110111101101110 ("
b1110111101101110 8"
b1101111011011101 H"
#33
b101010001 "
b111000100011010000111 Z
b1101111011011101 ("
b1101111011011101 8"
b1011110110111011 H"
#34
b111000100011010001000 Z
b1011110110111011 ("
b1011110110111011 8"
b111101101110110 H"
#35
b111000100011010001001 Z
b111101101110110 ("
b111101101110110 8"
b1111011011101100 H"
#36
b111000100011010001010 Z
b1111011011101100 ("
b1111011011101100 8"
b1110110111011000 H"
#37
b101010010 "
b111000100011010001011 Z
b1110110111011000 ("
b1110110111011000 8"
b1101101110110001 H"
#38
b111000100011010001100 Z
b1101101110110001 ("
b1101101110110001 8"
b1011011101100010 H"
#39
b111000100011010001101 Z
b1011011101100010 ("
b1011011101100010 8"
b110111011000100 H"
#40
b111000100011010001110 Z
b110111011000100 ("
b110111011000100 8"
b1101110110001000 H"
#41
b101010011 "
b111000100011010001111 Z
b1101110110001000 ("
b1101110110001000 8"
b1011101100010001 H"
#42
b111000100011010010000 Z
b1011101100010001 ("
b1011101100010001 8"
b111011000100011 H"
#43
b111000100011010010001 Z
b111011000100011 ("
b111011000100011 8"
b1110110001000111 H"
#44
b111000100011010010010 Z
b1110110001000111 ("
b1110110001000111 8"
b1101100010001111 H"
#45
b101010100 "
b111000100011010010011 Z
b1101100010001111 ("
b1101100010001111 8"
b1011000100011110 H"
#46
b111000100011010010100 Z
b1011000100011110 ("
b1011000100011110 8"
b110001000111101 H"
#47
b111000100011010010101 Z
b110001000111101 ("
b110001000111101 8"
b1100010001111011 H"
#48
b111000100011010010110 Z
b1100010001111011 ("
b1100010001111011 8"
b1000100011110110 H"
#49
b101010101 "
b111000100011010010111 Z
b1000100011110110 ("
b1000100011110110 8"
b1000111101101 H"
#50
b111000100011010011000 Z
b1000111101101 ("
b1000111101101 8"
b10001111011011 H"
#51
b111000100011010011001 Z
b10001111011011 ("
b10001111011011 8"
b100011110110111 H"
#52
b111000100011010011010 Z
b100011110110111 ("
b100011110110111 8"
b1000111101101111 H"
#53
b101010110 "
b111000100011010011011 Z
b1000111101101111 ("
b1000111101101111 8"
b1111011011110 H"
#54
b111000100011010011100 Z
b1111011011110 ("
b1111011011110 8"
b11110110111100 H"
#55
b111000100011010011101 Z
b11110110111100 ("
b11110110111100 8"
b111101101111001 H"
#56
b111000100011010011110 Z
b111101101111001 ("
b111101101111001 8"
b1111011011110010 H"
#57
b101010111 "
b111000100011010011111 Z
b1111011011110010 ("
b1111011011110010 8"
b1110110111100100 H"
#58
b111000100011010100000 Z
b1110110111100100 ("
b1110110111100100 8"
b1101101111001001 H"
#59
b111000100011010100001 Z
b1101101111001001 ("
b1101101111001001 8"
b1011011110010010 H"
#60
b111000100011010100010 Z
b1011011110010010 ("
b1011011110010010 8"
b110111100100100 H"
#61
b101011000 "
b111000100011010100011 Z
b110111100100100 ("
b110111100100100 8"
b1101111001001000 H"
#62
b111000100011010100100 Z
b1101111001001000 ("
b1101111001001000 8"
b1011110010010001 H"
#63
b111000100011010100101 Z
b1011110010010001 ("
b1011110010010001 8"
b111100100100010 H"
#64
b111000100011010100110 Z
b111100100100010 ("
b111100100100010 8"
b1111001001000100 H"
#65
b101011001 "
b111000100011010100111 Z
b1111001001000100 ("
b1111001001000100 8"
b1110010010001001 H"
#66
b111000100011010101000 Z
b1110010010001001 ("
b1110010010001001 8"
b1100100100010011 H"
#67
b111000100011010101001 Z
b1100100100010011 ("
b1100100100010011 8"
b1001001000100111 H"
#68
b111000100011010101010 Z
b1001001000100111 ("
b1001001000100111 8"
b10010001001110 H"
#69
b101011010 "
b111000100011010101011 Z
b10010001001110 ("
b10010001001110 8"
b100100010011100 H"
#70
b111000100011010101100 Z
b100100010011100 ("
b100100010011100 8"
b1001000100111000 H"
#71
b111000100011010101101 Z
b1001000100111000 ("
b1001000100111000 8"
b10001001110000 H"
#72
b111000100011010101110 Z
b10001001110000 ("
b10001001110000 8"
b100010011100001 H"
#73
b101011011 "
b111000100011010101111 Z
b100010011100001 ("
b100010011100001 8"
b1000100111000011 H"
#74
b111000100011010110000 Z
b1000100111000011 ("
b1000100111000011 8"
b1001110000111 H"
#75
b111000100011010110001 Z
b1001110000111 ("
b1001110000111 8"
b10011100001111 H"
#76
b111000100011010110010 Z
b10011100001111 ("
b10011100001111 8"
b100111000011110 H"
#77
b101011100 "
b111000100011010110011 Z
b100111000011110 ("
b100111000011110 8"
b1001110000111101 H"
#78
b111000100011010110100 Z
b1001110000111101 ("
b1001110000111101 8"
b11100001111011 H"
#79
b111000100011010110101 Z
b11100001111011 ("
b11100001111011 8"
b111000011110110 H"
#80
b111000100011010110110 Z
b111000011110110 ("
b111000011110110 8"
b1110000111101100 H"
#81
b101011101 "
b111000100011010110111 Z
b1110000111101100 ("
b1110000111101100 8"
b1100001111011000 H"
#82
b111000100011010111000 Z
b1100001111011000 ("
b1100001111011000 8"
b1000011110110001 H"
#83
b111000100011010111001 Z
b1000011110110001 ("
b1000011110110001 8"
b111101100010 H"
#84
b111000100011010111010 Z
b111101100010 ("
b111101100010 8"
b1111011000101 H"
#85
b101011110 "
b111000100011010111011 Z
b1111011000101 ("
b1111011000101 8"
b11110110001010 H"
#86
b111000100011010111100 Z
b11110110001010 ("
b11110110001010 8"
b111101100010101 H"
#87
b111000100011010111101 Z
b111101100010101 ("
b111101100010101 8"
b1111011000101010 H"
#88
b111000100011010111110 Z
b1111011000101010 ("
b1111011000101010 8"
b1110110001010100 H"
#89
b101011111 "
b111000100011010111111 Z
b1110110001010100 ("
b1110110001010100 8"
b1101100010101001 H"
#90
b111000100011011000000 Z
b1101100010101001 ("
b1101100010101001 8"
b1011000101010010 H"
#91
b111000100011011000001 Z
b1011000101010010 ("
b1011000101010010 8"
b110001010100101 H"
#92
b111000100011011000010 Z
b110001010100101 ("
b110001010100101 8"
b1100010101001011 H"
#93
b101100000 "
b111000100011011000011 Z
b1100010101001011 ("
b1100010101001011 8"
b1000101010010110 H"
#94
b111000100011011000100 Z
b1000101010010110 ("
b1000101010010110 8"
b1010100101101 H"
#95
b111000100011011000101 Z
b1010100101101 ("
b1010100101101 8"
b10101001011010 H"
#96
b111000100011011000110 Z
b10101001011010 ("
b10101001011010 8"
b101010010110101 H"
#97
b101100001 "
b111000100011011000111 Z
b101010010110101 ("
b101010010110101 8"
b1010100101101010 H"
#98
b111000100011011001000 Z
b1010100101101010 ("
b1010100101101010 8"
b101001011010100 H"
#99
b111000100011011001001 Z
b101001011010100 ("
b101001011010100 8"
b1010010110101001 H"
#100
b111000100011011001010 Z
b1010010110101001 ("
b1010010110101001 8"
b100101101010011 H"
#101
b101100010 "
b111000100011011001011 Z
b100101101010011 ("
b100101101010011 8"
b1001011010100110 H"
#102
b111000100011011001100 Z
b1001011010100110 ("
b1001011010100110 8"
b10110101001101 H"
#103
b111000100011011001101 Z
b10110101001101 ("
b10110101001101 8"
b101101010011010 H"
#104
b111000100011011001110 Z
b101101010011010 ("
b101101010011010 8"
b1011010100110101 H"
#105
b101100011 "
b111000100011011001111 Z
b1011010100110101 ("
b1011010100110101 8"
b110101001101010 H"
#106
b111000100011011010000 Z
b110101001101010 ("
b110101001101010 8"
b1101010011010101 H"
#107
b111000100011011010001 Z
b1101010011010101 ("
b1101010011010101 8"
b1010100110101011 H"
#108
b111000100011011010010 Z
b1010100110101011 ("
b1010100110101011 8"
b101001101010110 H"
#109
b101100100 "
b111000100011011010011 Z
b101001101010110 ("
b101001101010110 8"
b1010011010101101 H"
#110
b111000100011011010100 Z
b1010011010101101 ("
b1010011010101101 8"
b100110101011011 H"
#111
b111000100011011010101 Z
b100110101011011 ("
b100110101011011 8"
b1001101010110111 H"
#112
b111000100011011010110 Z
b1001101010110111 ("
b1001101010110111 8"
b11010101101110 H"
#113
b101100101 "
b111000100011011010111 Z
b11010101101110 ("
b11010101101110 8"
b110101011011101 H"
#114
b111000100011011011000 Z
b110101011011101 ("
b110101011011101 8"
b1101010110111011 H"
#115
b111000100011011011001 Z
b1101010110111011 ("
b1101010110111011 8"
b1010101101110111 H"
#116
b111000100011011011010 Z
b1010101101110111 ("
b1010101101110111 8"
b101011011101110 H"
#117
b101100110 "
b111000100011011011011 Z
b101011011101110 ("
b101011011101110 8"
b1010110111011100 H"
#118
b111000100011011011100 Z
b1010110111011100 ("
b1010110111011100 8"
b101101110111001 H"
#119
b111000100011011011101 Z
b101101110111001 ("
b101101110111001 8"
b1011011101110011 H"
#120
b111000100011011011110 Z
b1011011101110011 ("
b1011011101110011 8"
b110111011100110 H"
#121
b101100111 "
b111000100011011011111 Z
b110111011100110 ("
b110111011100110 8"
b1101110111001100 H"
#122
b111000100011011100000 Z
b1101110111001100 ("
b1101110111001100 8"
b1011101110011001 H"
#123
b111000100011011100001 Z
b1011101110011001 ("
b1011101110011001 8"
b111011100110011 H"
#124
b111000100011011100010 Z
b111011100110011 ("
b111011100110011 8"
b1110111001100111 H"
#125
b101101000 "
b111000100011011100011 Z
b1110111001100111 ("
b1110111001100111 8"
b1101110011001111 H"
#126
b111000100011011100100 Z
b1101110011001111 ("
b1101110011001111 8"
b1011100110011111 H"
#127
b111000100011011100101 Z
b1011100110011111 ("
b1011100110011111 8"
b111001100111111 H"
#128
b111000100011011100110 Z
b111001100111111 ("
b111001100111111 8"
b1110011001111110 H"
#129
b101101001 "
b111000100011011100111 Z
b1110011001111110 ("
b1110011001111110 8"
b1100110011111101 H"
#130
b111000100011011101000 Z
b1100110011111101 ("
b1100110011111101 8"
b1001100111111010 H"
#131
b111000100011011101001 Z
b1001100111111010 ("
b1001100111111010 8"
b11001111110100 H"
#132
b111000100011011101010 Z
b11001111110100 ("
b11001111110100 8"
b110011111101000 H"
#133
b101101010 "
b111000100011011101011 Z
b110011111101000 ("
b110011111101000 8"
b1100111111010000 H"
#134
b111000100011011101100 Z
b1100111111010000 ("
b1100111111010000 8"
b1001111110100000 H"
#135
b111000100011011101101 Z
b1001111110100000 ("
b1001111110100000 8"
b11111101000001 H"
#136
b111000100011011101110 Z
b11111101000001 ("
b11111101000001 8"
b111111010000011 H"
#137
b101101011 "
b111000100011011101111 Z
b111111010000011 ("
b111111010000011 8"
b1111110100000111 H"
#138
b111000100011011110000 Z
b1111110100000111 ("
b1111110100000111 8"
b1111101000001110 H"
#139
b111000100011011110001 Z
b1111101000001110 ("
b1111101000001110 8"
b1111010000011101 H"
#140
b111000100011011110010 Z
b1111010000011101 ("
b1111010000011101 8"
b1110100000111010 H"
#141
b101101100 "
b111000100011011110011 Z
b1110100000111010 ("
b1110100000111010 8"
b1101000001110100 H"
#142
b111000100011011110100 Z
b1101000001110100 ("
b1101000001110100 8"
b1010000011101000 H"
#143
b111000100011011110101 Z
b1010000011101000 ("
b1010000011101000 8"
b100000111010000 H"
#144
b111000100011011110110 Z
b100000111010000 ("
b100000111010000 8"
b1000001110100000 H"
#145
b101101101 "
b111000100011011110111 Z
b1000001110100000 ("
b1000001110100000 8"
b11101000001 H"
#146
b111000100011011111000 Z
b11101000001 ("
b11101000001 8"
b111010000011 H"
#147
b111000100011011111001 Z
b111010000011 ("
b111010000011 8"
b1110100000111 H"
#148
b111000100011011111010 Z
b1110100000111 ("
b1110100000111 8"
b11101000001110 H"
#149
b101101110 "
b111000100011011111011 Z
b11101000001110 ("
b11101000001110 8"
b111010000011100 H"
#150
b111000100011011111100 Z
b111010000011100 ("
b111010000011100 8"
b1110100000111001 H"
#151
b111000100011011111101 Z
b1110100000111001 ("
b1110100000111001 8"
b1101000001110010 H"
#152
b111000100011011111110 Z
b1101000001110010 ("
b1101000001110010 8"
b1010000011100100 H"
#153
b101101111 "
b111000100011011111111 Z
b1010000011100100 ("
b1010000011100100 8"
b100000111001000 H"
#154
b111000100011100000000 Z
b100000111001000 ("
b100000111001000 8"
b1000001110010000 H"
#155
b111000100011100000001 Z
b1000001110010000 ("
b1000001110010000 8"
b11100100001 H"
#156
b111000100011100000010 Z
b11100100001 ("
b11100100001 8"
b111001000011 H"
#157
b101110000 "
b111000100011100000011 Z
b111001000011 ("
b111001000011 8"
b1110010000111 H"
#158
b111000100011100000100 Z
b1110010000111 ("
b1110010000111 8"
b11100100001110 H"
#159
b111000100011100000101 Z
b11100100001110 ("
b11100100001110 8"
b111001000011100 H"
#160
b111000100011100000110 Z
b111001000011100 ("
b111001000011100 8"
b1110010000111000 H"
#161
b101110001 "
b111000100011100000111 Z
b1110010000111000 ("
b1110010000111000 8"
b1100100001110001 H"
#162
b111000100011100001000 Z
b1100100001110001 ("
b1100100001110001 8"
b1001000011100011 H"
#163
b111000100011100001001 Z
b1001000011100011 ("
b1001000011100011 8"
b10000111000110 H"
#164
b111000100011100001010 Z
b10000111000110 ("
b10000111000110 8"
b100001110001101 H"
#165
b101110010 "
b111000100011100001011 Z
b100001110001101 ("
b100001110001101 8"
b1000011100011010 H"
#166
b111000100011100001100 Z
b1000011100011010 ("
b1000011100011010 8"
b111000110100 H"
#167
b111000100011100001101 Z
b111000110100 ("
b111000110100 8"
b1110001101001 H"
#168
b111000100011100001110 Z
b1110001101001 ("
b1110001101001 8"
b11100011010010 H"
#169
b101110011 "
b111000100011100001111 Z
b11100011010010 ("
b11100011010010 8"
b111000110100100 H"
#170
b111000100011100010000 Z
b111000110100100 ("
b111000110100100 8"
b1110001101001000 H"
#171
b111000100011100010001 Z
b1110001101001000 ("
b1110001101001000 8"
b1100011010010000 H"
#172
b111000100011100010010 Z
b1100011010010000 ("
b1100011010010000 8"
b1000110100100000 H"
#173
b101110100 "
b111000100011100010011 Z
b1000110100100000 ("
b1000110100100000 8"
b1101001000000 H"
#174
b111000100011100010100 Z
b1101001000000 ("
b1101001000000 8"
b11010010000001 H"
#175
b111000100011100010101 Z
b11010010000001 ("
b11010010000001 8"
b110100100000011 H"
#176
b111000100011100010110 Z
b110100100000011 ("
b110100100000011 8"
b1101001000000111 H"
#177
b101110101 "
b111000100011100010111 Z
b1101001000000111 ("
b1101001000000111 8"
b1010010000001110 H"
#178
b111000100011100011000 Z
b1010010000001110 ("
b1010010000001110 8"
b100100000011101 H"
#179
b111000100011100011001 Z
b100100000011101 ("
b100100000011101 8"
b1001000000111010 H"
#180
b111000100011100011010 Z
b1001000000111010 ("
b1001000000111010 8"
b10000001110100 H"
#181
b101110110 "
b111000100011100011011 Z
b10000001110100 ("
b10000001110100 8"
b100000011101001 H"
#182
b111000100011100011100 Z
b100000011101001 ("
b100000011101001 8"
b1000000111010010 H"
#183
b111000100011100011101 Z
b1000000111010010 ("
b1000000111010010 8"
b1110100101 H"
#184
b111000100011100011110 Z
b1110100101 ("
b1110100101 8"
b11101001010 H"
#185
b101110111 "
b111000100011100011111 Z
b11101001010 ("
b11101001010 8"
b111010010101 H"
#186
b111000100011100100000 Z
b111010010101 ("
b111010010101 8"
b1110100101011 H"
#187
b111000100011100100001 Z
b1110100101011 ("
b1110100101011 8"
b11101001010110 H"
#188
b111000100011100100010 Z
b11101001010110 ("
b11101001010110 8"
b111010010101100 H"
#189
b101111000 "
b111000100011100100011 Z
b111010010101100 ("
b111010010101100 8"
b1110100101011001 H"
#190
b111000100011100100100 Z
b1110100101011001 ("
b1110100101011001 8"
b1101001010110010 H"
#191
b111000100011100100101 Z
b1101001010110010 ("
b1101001010110010 8"
b1010010101100100 H"
#192
b111000100011100100110 Z
b1010010101100100 ("
b1010010101100100 8"
b100101011001001 H"
#193
b101111001 "
b111000100011100100111 Z
b100101011001001 ("
b100101011001001 8"
b1001010110010010 H"
#194
b111000100011100101000 Z
b1001010110010010 ("
b1001010110010010 8"
b10101100100101 H"
#195
b111000100011100101001 Z
b10101100100101 ("
b10101100100101 8"
b101011001001011 H"
#196
b111000100011100101010 Z
b101011001001011 ("
b101011001001011 8"
b1010110010010110 H"
#197
b101111010 "
b111000100011100101011 Z
b1010110010010110 ("
b1010110010010110 8"
b101100100101101 H"
#198
b111000100011100101100 Z
b101100100101101 ("
b101100100101101 8"
b1011001001011011 H"
#199
b111000100011100101101 Z
b1011001001011011 ("
b1011001001011011 8"
b110010010110111 H"
#200
b111000100011100101110 Z
b110010010110111 ("
b110010010110111 8"
b1100100101101110 H"
#201
b101111011 "
b111000100011100101111 Z
b1100100101101110 ("
b1100100101101110 8"
b1001001011011101 H"
#202
b111000100011100110000 Z
b1001001011011101 ("
b1001001011011101 8"
b10010110111010 H"
#203
b111000100011100110001 Z
b10010110111010 ("
b10010110111010 8"
b100101101110100 H"
#204
b111000100011100110010 Z
b100101101110100 ("
b100101101110100 8"
b1001011011101000 H"
#205
b101111100 "
b111000100011100110011 Z
b1001011011101000 ("
b1001011011101000 8"
b10110111010001 H"
#206
b111000100011100110100 Z
b10110111010001 ("
b10110111010001 8"
b101101110100010 H"
#207
b111000100011100110101 Z
b101101110100010 ("
b101101110100010 8"
b1011011101000101 H"
#208
b111000100011100110110 Z
b1011011101000101 ("
b1011011101000101 8"
b110111010001010 H"
#209
b101111101 "
b111000100011100110111 Z
b110111010001010 ("
b110111010001010 8"
b1101110100010100 H"
#210
b111000100011100111000 Z
b1101110100010100 ("
b1101110100010100 8"
b1011101000101001 H"
#211
b111000100011100111001 Z
b1011101000101001 ("
b1011101000101001 8"
b111010001010011 H"
#212
b111000100011100111010 Z
b111010001010011 ("
b111010001010011 8"
b1110100010100111 H"
#213
b101111110 "
b111000100011100111011 Z
b1110100010100111 ("
b1110100010100111 8"
b1101000101001110 H"
#214
b111000100011100111100 Z
b1101000101001110 ("
b1101000101001110 8"
b1010001010011100 H"
#215
b111000100011100111101 Z
b1010001010011100 ("
b1010001010011100 8"
b100010100111000 H"
#216
b111000100011100111110 Z
b100010100111000 ("
b100010100111000 8"
b1000101001110001 H"
#217
b101111111 "
b111000100011100111111 Z
b1000101001110001 ("
b1000101001110001 8"
b1010011100011 H"
#218
b111000100011101000000 Z
b1010011100011 ("
b1010011100011 8"
b10100111000110 H"
#219
b111000100011101000001 Z
b10100111000110 ("
b10100111000110 8"
b101001110001101 H"
#220
b111000100011101000010 Z
b101001110001101 ("
b101001110001101 8"
b1010011100011011 H"
#221
b110000000 "
b111000100011101000011 Z
b1010011100011011 ("
b1010011100011011 8"
b100111000110111 H"
#222
b111000100011101000100 Z
b100111000110111 ("
b100111000110111 8"
b1001110001101111 H"
#223
b111000100011101000101 Z
b1001110001101111 ("
b1001110001101111 8"
b11100011011111 H"
#224
b111000100011101000110 Z
b11100011011111 ("
b11100011011111 8"
b111000110111110 H"
#225
b110000001 "
b111000100011101000111 Z
b111000110111110 ("
b111000110111110 8"
b1110001101111100 H"
#226
b111000100011101001000 Z
b1110001101111100 ("
b1110001101111100 8"
b1100011011111000 H"
#227
b111000100011101001001 Z
b1100011011111000 ("
b1100011011111000 8"
b1000110111110000 H"
#228
b111000100011101001010 Z
b1000110111110000 ("
b1000110111110000 8"
b1101111100000 H"
#229
b110000010 "
b111000100011101001011 Z
b1101111100000 ("
b1101111100000 8"
b11011111000001 H"
#230
b111000100011101001100 Z
b11011111000001 ("
b11011111000001 8"
b110111110000011 H"
#231
b111000100011101001101 Z
b110111110000011 ("
b110111110000011 8"
b1101111100000110 H"
#232
b111000100011101001110 Z
b1101111100000110 ("
b1101111100000110 8"
b1011111000001101 H"
#233
b110000011 "
b111000100011101001111 Z
b1011111000001101 ("
b1011111000001101 8"
b111110000011010 H"
#234
b111000100011101010000 Z
b111110000011010 ("
b111110000011010 8"
b1111100000110101 H"
#235
b111000100011101010001 Z
b1111100000110101 ("
b1111100000110101 8"
b1111000001101011 H"
#236
b111000100011101010010 Z
b1111000001101011 ("
b1111000001101011 8"
b1110000011010111 H"
#237
b110000100 "
b111000100011101010011 Z
b1110000011010111 ("
b1110000011010111 8"
b1100000110101110 H"
#238
b111000100011101010100 Z
b1100000110101110 ("
b1100000110101110 8"
b1000001101011101 H"
#239
b111000100011101010101 Z
b1000001101011101 ("
b1000001101011101 8"
b11010111011 H"
#240
b111000100011101010110 Z
b11010111011 ("
b11010111011 8"
b110101110111 H"
#241
b110000101 "
b111000100011101010111 Z
b110101110111 ("
b110101110111 8"
b1101011101111 H"
#242
b111000100011101011000 Z
b1101011101111 ("
b1101011101111 8"
b11010111011111 H"
#243
b111000100011101011001 Z
b11010111011111 ("
b11010111011111 8"
b110101110111111 H"
#244
b111000100011101011010 Z
b110101110111111 ("
b110101110111111 8"
b1101011101111111 H"
#245
b110000110 "
b111000100011101011011 Z
b1101011101111111 ("
b1101011101111111 8"
b1010111011111111 H"
#246
b111000100011101011100 Z
b1010111011111111 ("
b1010111011111111 8"
b101110111111111 H"
#247
b111000100011101011101 Z
b101110111111111 ("
b101110111111111 8"
b1011101111111110 H"
#248
b111000100011101011110 Z
b1011101111111110 ("
b1011101111111110 8"
b111011111111101 H"
#249
b110000111 "
b111000100011101011111 Z
b111011111111101 ("
b111011111111101 8"
b1110111111111011 H"
#250
b111000100011101100000 Z
b1110111111111011 ("
b1110111111111011 8"
b1101111111110111 H"
#251
b111000100011101100001 Z
b1101111111110111 ("
b1101111111110111 8"
b1011111111101111 H"
#252
b111000100011101100010 Z
b1011111111101111 ("
b1011111111101111 8"
b111111111011110 H"
#253
b110001000 "
b111000100011101100011 Z
b111111111011110 ("
b111111111011110 8"
b1111111110111101 H"
#254
b111000100011101100100 Z
b1111111110111101 ("
b1111111110111101 8"
b1111111101111010 H"
#255
b111000100011101100101 Z
b1111111101111010 ("
b1111111101111010 8"
b1111111011110100 H"
#256
b111000100011101100110 Z
b1111111011110100 ("
b1111111011110100 8"
b1111110111101000 H"
#257
b110001001 "
b111000100011101100111 Z
b1111110111101000 ("
b1111110111101000 8"
b1111101111010000 H"
#258
b111000100011101101000 Z
b1111101111010000 ("
b1111101111010000 8"
b1111011110100001 H"
#259
b111000100011101101001 Z
b1111011110100001 ("
b1111011110100001 8"
b1110111101000010 H"
#260
b111000100011101101010 Z
b1110111101000010 ("
b1110111101000010 8"
b1101111010000101 H"
#261
b110001010 "
b111000100011101101011 Z
b1101111010000101 ("
b1101111010000101 8"
b1011110100001011 H"
#262
b111000100011101101100 Z
b1011110100001011 ("
b1011110100001011 8"
b111101000010110 H"
#263
b111000100011101101101 Z
b111101000010110 ("
b111101000010110 8"
b1111010000101100 H"
#264
b111000100011101101110 Z
b1111010000101100 ("
b1111010000101100 8"
b1110100001011000 H"
#265
b110001011 "
b111000100011101101111 Z
b1110100001011000 ("
b1110100001011000 8"
b1101000010110000 H"
#266
b111000100011101110000 Z
b1101000010110000 ("
b1101000010110000 8"
b1010000101100000 H"
#267
b111000100011101110001 Z
b1010000101100000 ("
b1010000101100000 8"
b100001011000000 H"
#268
b111000100011101110010 Z
b100001011000000 ("
b100001011000000 8"
b1000010110000000 H"
#269
b110001100 "
b111000100011101110011 Z
b1000010110000000 ("
b1000010110000000 8"
b101100000000 H"
#270
b111000100011101110100 Z
b101100000000 ("
b101100000000 8"
b1011000000000 H"
#271
b111000100011101110101 Z
b1011000000000 ("
b1011000000000 8"
b10110000000000 H"
#272
b111000100011101110110 Z
b10110000000000 ("
b10110000000000 8"
b101100000000000 H"
#273
b110001101 "
b111000100011101110111 Z
b101100000000000 ("
b101100000000000 8"
b1011000000000001 H"
#274
b111000100011101111000 Z
b1011000000000001 ("
b1011000000000001 8"
b110000000000011 H"
#275
b111000100011101111001 Z
b110000000000011 ("
b110000000000011 8"
b1100000000000111 H"
#276
b111000100011101111010 Z
b1100000000000111 ("
b1100000000000111 8"
b1000000000001111 H"
#277
b110001110 "
b111000100011101111011 Z
b1000000000001111 ("
b1000000000001111 8"
b11111 H"
#278
b111000100011101111100 Z
b11111 ("
b11111 8"
b111110 H"
#279
b111000100011101111101 Z
b111110 ("
b111110 8"
b1111100 H"
#280
b111000100011101111110 Z
b1111100 ("
b1111100 8"
b11111000 H"
