bomberman_student_2024/bomberman_basys3/.Xil/Vivado-9546-Samsung-SmartFridge/hw_ila_data_1/zip_work/waveform.vcd
$date
        2024-Nov-21 13:32:30
$end
$version
        Vivado v2024.1 (64-bit)
$end
$timescale
        1ps
$end
$scope module dut $end
$var reg 10 " x [9:0] $end
$var reg 10 , y [9:0] $end
$var reg 1 6 vsync_OBUF $end
$var reg 1 7 hsync_OBUF $end
$var reg 1 8 display_on $end
$var reg 1 9 pixel_tick $end
$var reg 10 : x_e_reg [9:0] $end
$var reg 10 D y_e_reg [9:0] $end
$var reg 4 N move_cnt_reg [3:0] $end
$var reg 1 R <const0>_1 $end
$var reg 1 S <const0>_2 $end
$var reg 1 T <const0>_3 $end
$var reg 1 U <const0>_4 $end
$var reg 1 V <const0>_5 $end
$var reg 1 W <const0>_6 $end
$var reg 1 X <const0>_7 $end
$var reg 1 Y <const0>_8 $end
$var reg 21 Z motion_timer_reg [20:0] $end
$var reg 3 o e_state_reg [2:0] $end
$var reg 1 r <const0>_9 $end
$var reg 1 s <const0>_10 $end
$var reg 1 t <const0>_11 $end
$var reg 1 u <const0>_12 $end
$var reg 1 v <const0>_13 $end
$var reg 1 w <const0>_14 $end
$var reg 1 x <const0>_15 $end
$var reg 1 y <const0>_16 $end
$var reg 1 z <const0>_17 $end
$var reg 1 { <const0>_18 $end
$var reg 1 | <const0>_19 $end
$var reg 1 } <const0>_20 $end
$var reg 1 ~ <const0>_21 $end
$var reg 1 !" <const0>_22 $end
$var reg 1 "" <const0>_23 $end
$var reg 1 #" <const0>_24 $end
$var reg 1 $" <const0>_25 $end
$var reg 1 %" <const0> $end
$var reg 1 &" _TRIGGER $end
$var reg 1 '" _WINDOW $end
$var reg 1 (" _GAP $end
$upscope $end
$enddefinitions $end
#0
$dumpvars
b1010000011 "
b10010110 ,
16
07
18
09
b11010000 :
b1000010010 D
b11 N
0R
0S
0T
0U
0V
0W
0X
0Y
b11100010110110111110 Z
b0 o
0r
0s
0t
0u
0v
0w
0x
0y
0z
0{
0|
0}
0~
0!"
0""
0#"
0$"
0%"
0&"
1'"
0("
$end
#1
19
b11100010110110111111 Z
#2
b11100010110111000000 Z
#3
09
b11100010110111000001 Z
#4
b11100010110111000010 Z
#5
19
b11100010110111000011 Z
#6
b11100010110111000100 Z
#7
09
b11100010110111000101 Z
#8
b11100010110111000110 Z
#9
19
b11100010110111000111 Z
#10
b11100010110111001000 Z
#11
09
b11100010110111001001 Z
#12
b11100010110111001010 Z
#13
19
b11100010110111001011 Z
#14
b11100010110111001100 Z
#15
09
b11100010110111001101 Z
#16
b11100010110111001110 Z
#17
19
b11100010110111001111 Z
#18
b11100010110111010000 Z
#19
09
b11100010110111010001 Z
#20
b11100010110111010010 Z
#21
19
b11100010110111010011 Z
#22
b11100010110111010100 Z
#23
09
b11100010110111010101 Z
#24
b11100010110111010110 Z
#25
19
b11100010110111010111 Z
#26
b11100010110111011000 Z
#27
09
b11100010110111011001 Z
#28
b11100010110111011010 Z
#29
19
b11100010110111011011 Z
#30
b11100010110111011100 Z
#31
09
b11100010110111011101 Z
#32
b11100010110111011110 Z
#33
19
b11100010110111011111 Z
#34
b11100010110111100000 Z
#35
09
b11100010110111100001 Z
#36
b11100010110111100010 Z
#37
19
b11100010110111100011 Z
#38
b11100010110111100100 Z
#39
09
b11100010110111100101 Z
#40
b11100010110111100110 Z
#41
19
b11100010110111100111 Z
#42
b11100010110111101000 Z
#43
09
b11100010110111101001 Z
#44
b11100010110111101010 Z
#45
19
b11100010110111101011 Z
#46
b11100010110111101100 Z
#47
09
b11100010110111101101 Z
#48
b11100010110111101110 Z
#49
19
b11100010110111101111 Z
#50
b11100010110111110000 Z
#51
09
b11100010110111110001 Z
#52
b11100010110111110010 Z
#53
19
b11100010110111110011 Z
#54
b11100010110111110100 Z
#55
09
b11100010110111110101 Z
#56
b11100010110111110110 Z
#57
19
b11100010110111110111 Z
#58
b11100010110111111000 Z
#59
09
b11100010110111111001 Z
#60
b11100010110111111010 Z
#61
19
b11100010110111111011 Z
#62
b11100010110111111100 Z
#63
09
b11100010110111111101 Z
#64
b11100010110111111110 Z
#65
19
b11100010110111111111 Z
#66
b11100010111000000000 Z
#67
09
b11100010111000000001 Z
#68
b11100010111000000010 Z
#69
19
b11100010111000000011 Z
#70
b11100010111000000100 Z
#71
09
b11100010111000000101 Z
#72
b11100010111000000110 Z
#73
19
b11100010111000000111 Z
#74
b11100010111000001000 Z
#75
09
b11100010111000001001 Z
#76
b11100010111000001010 Z
#77
19
b11100010111000001011 Z
#78
b11100010111000001100 Z
#79
09
b11100010111000001101 Z
#80
b11100010111000001110 Z
#81
19
b11100010111000001111 Z
#82
b11100010111000010000 Z
#83
09
b11100010111000010001 Z
#84
b11100010111000010010 Z
#85
19
b11100010111000010011 Z
#86
b11100010111000010100 Z
#87
09
b11100010111000010101 Z
#88
b11100010111000010110 Z
#89
19
b11100010111000010111 Z
#90
b11100010111000011000 Z
#91
09
b11100010111000011001 Z
#92
b11100010111000011010 Z
#93
19
b11100010111000011011 Z
#94
b11100010111000011100 Z
#95
09
b11100010111000011101 Z
#96
b11100010111000011110 Z
#97
19
b11100010111000011111 Z
#98
b11100010111000100000 Z
#99
09
b11100010111000100001 Z
#100
b11100010111000100010 Z
#101
19
b11100010111000100011 Z
#102
b11100010111000100100 Z
#103
09
b11100010111000100101 Z
#104
b11100010111000100110 Z
#105
19
b11100010111000100111 Z
#106
b11100010111000101000 Z
#107
09
b11100010111000101001 Z
#108
b11100010111000101010 Z
#109
19
b11100010111000101011 Z
#110
b11100010111000101100 Z
#111
09
b11100010111000101101 Z
#112
b11100010111000101110 Z
#113
19
b11100010111000101111 Z
#114
b11100010111000110000 Z
#115
09
b11100010111000110001 Z
#116
b11100010111000110010 Z
#117
19
b11100010111000110011 Z
#118
b11100010111000110100 Z
#119
09
b11100010111000110101 Z
#120
b11100010111000110110 Z
#121
19
b11100010111000110111 Z
#122
b11100010111000111000 Z
#123
09
b11100010111000111001 Z
#124
b11100010111000111010 Z
#125
19
b11100010111000111011 Z
#126
b11100010111000111100 Z
#127
09
b11100010111000111101 Z
#128
b11100010111000111110 Z
#129
19
b11100010111000111111 Z
#130
b11100010111001000000 Z
#131
09
b11100010111001000001 Z
#132
b11100010111001000010 Z
#133
19
b11100010111001000011 Z
#134
b11100010111001000100 Z
#135
09
b11100010111001000101 Z
#136
b11100010111001000110 Z
#137
19
b11100010111001000111 Z
#138
b11100010111001001000 Z
#139
09
b11100010111001001001 Z
#140
b11100010111001001010 Z
#141
19
b11100010111001001011 Z
#142
b11100010111001001100 Z
#143
09
b11100010111001001101 Z
#144
b11100010111001001110 Z
#145
19
b11100010111001001111 Z
#146
b11100010111001010000 Z
#147
09
b11100010111001010001 Z
#148
b11100010111001010010 Z
#149
19
b11100010111001010011 Z
#150
b11100010111001010100 Z
#151
09
b11100010111001010101 Z
#152
b11100010111001010110 Z
#153
17
19
b11100010111001010111 Z
#154
b11100010111001011000 Z
#155
09
b11100010111001011001 Z
#156
b11100010111001011010 Z
#157
19
b11100010111001011011 Z
#158
b11100010111001011100 Z
#159
09
b11100010111001011101 Z
#160
b11100010111001011110 Z
#161
19
b11100010111001011111 Z
#162
b11100010111001100000 Z
#163
09
b11100010111001100001 Z
#164
b11100010111001100010 Z
#165
19
b11100010111001100011 Z
#166
b11100010111001100100 Z
#167
09
b11100010111001100101 Z
#168
b11100010111001100110 Z
#169
19
b11100010111001100111 Z
#170
b11100010111001101000 Z
#171
09
b11100010111001101001 Z
#172
b11100010111001101010 Z
#173
19
b11100010111001101011 Z
#174
b11100010111001101100 Z
#175
09
b11100010111001101101 Z
#176
b11100010111001101110 Z
#177
19
b11100010111001101111 Z
#178
b11100010111001110000 Z
#179
09
b11100010111001110001 Z
#180
b11100010111001110010 Z
#181
19
b11100010111001110011 Z
#182
b11100010111001110100 Z
#183
09
b11100010111001110101 Z
#184
b11100010111001110110 Z
#185
19
b11100010111001110111 Z
#186
b11100010111001111000 Z
#187
09
b11100010111001111001 Z
#188
b11100010111001111010 Z
#189
19
b11100010111001111011 Z
#190
b11100010111001111100 Z
#191
09
b11100010111001111101 Z
#192
b11100010111001111110 Z
#193
19
b11100010111001111111 Z
#194
b11100010111010000000 Z
#195
09
b11100010111010000001 Z
#196
b11100010111010000010 Z
#197
19
b11100010111010000011 Z
#198
b11100010111010000100 Z
#199
09
b11100010111010000101 Z
#200
b11100010111010000110 Z
#201
19
b11100010111010000111 Z
#202
b11100010111010001000 Z
#203
09
b11100010111010001001 Z
#204
b11100010111010001010 Z
#205
19
b11100010111010001011 Z
#206
b11100010111010001100 Z
#207
09
b11100010111010001101 Z
#208
b11100010111010001110 Z
#209
19
b11100010111010001111 Z
#210
b11100010111010010000 Z
#211
09
b11100010111010010001 Z
#212
b11100010111010010010 Z
#213
19
b11100010111010010011 Z
#214
b11100010111010010100 Z
#215
09
b11100010111010010101 Z
#216
b11100010111010010110 Z
#217
19
b11100010111010010111 Z
#218
b11100010111010011000 Z
#219
09
b11100010111010011001 Z
#220
b11100010111010011010 Z
#221
19
b11100010111010011011 Z
#222
b11100010111010011100 Z
#223
09
b11100010111010011101 Z
#224
b11100010111010011110 Z
#225
19
b11100010111010011111 Z
#226
b11100010111010100000 Z
#227
09
b11100010111010100001 Z
#228
b11100010111010100010 Z
#229
19
b11100010111010100011 Z
#230
b11100010111010100100 Z
#231
09
b11100010111010100101 Z
#232
b11100010111010100110 Z
#233
19
b11100010111010100111 Z
#234
b11100010111010101000 Z
#235
09
b11100010111010101001 Z
#236
b11100010111010101010 Z
#237
19
b11100010111010101011 Z
#238
b11100010111010101100 Z
#239
09
b11100010111010101101 Z
#240
b11100010111010101110 Z
#241
19
b11100010111010101111 Z
#242
b11100010111010110000 Z
#243
09
b11100010111010110001 Z
#244
b11100010111010110010 Z
#245
19
b11100010111010110011 Z
#246
b11100010111010110100 Z
#247
09
b11100010111010110101 Z
#248
b11100010111010110110 Z
#249
19
b11100010111010110111 Z
#250
b11100010111010111000 Z
#251
09
b11100010111010111001 Z
#252
b11100010111010111010 Z
#253
19
b11100010111010111011 Z
#254
b11100010111010111100 Z
#255
09
b11100010111010111101 Z
#256
b11100010111010111110 Z
#257
19
b11100010111010111111 Z
#258
b11100010111011000000 Z
#259
09
b11100010111011000001 Z
#260
b11100010111011000010 Z
#261
19
b11100010111011000011 Z
#262
b11100010111011000100 Z
#263
09
b11100010111011000101 Z
#264
b11100010111011000110 Z
#265
19
b11100010111011000111 Z
#266
b11100010111011001000 Z
#267
09
b11100010111011001001 Z
#268
b11100010111011001010 Z
#269
19
b11100010111011001011 Z
#270
b11100010111011001100 Z
#271
09
b11100010111011001101 Z
#272
b11100010111011001110 Z
#273
19
b11100010111011001111 Z
#274
b11100010111011010000 Z
#275
09
b11100010111011010001 Z
#276
b11100010111011010010 Z
#277
19
b11100010111011010011 Z
#278
b11100010111011010100 Z
#279
09
b11100010111011010101 Z
#280
b11100010111011010110 Z
#281
19
b11100010111011010111 Z
#282
b11100010111011011000 Z
#283
09
b11100010111011011001 Z
#284
b11100010111011011010 Z
#285
19
b11100010111011011011 Z
#286
b11100010111011011100 Z
#287
09
b11100010111011011101 Z
#288
b11100010111011011110 Z
#289
19
b11100010111011011111 Z
#290
b11100010111011100000 Z
#291
09
b11100010111011100001 Z
#292
b11100010111011100010 Z
#293
19
b11100010111011100011 Z
#294
b11100010111011100100 Z
#295
09
b11100010111011100101 Z
#296
b11100010111011100110 Z
#297
19
b11100010111011100111 Z
#298
b11100010111011101000 Z
#299
09
b11100010111011101001 Z
#300
b11100010111011101010 Z
#301
19
b11100010111011101011 Z
#302
b11100010111011101100 Z
#303
09
b11100010111011101101 Z
#304
b11100010111011101110 Z
#305
19
b11100010111011101111 Z
#306
b11100010111011110000 Z
#307
09
b11100010111011110001 Z
#308
b11100010111011110010 Z
#309
19
b11100010111011110011 Z
#310
b11100010111011110100 Z
#311
09
b11100010111011110101 Z
#312
b11100010111011110110 Z
#313
19
b11100010111011110111 Z
#314
b11100010111011111000 Z
#315
09
b11100010111011111001 Z
#316
b11100010111011111010 Z
#317
19
b11100010111011111011 Z
#318
b11100010111011111100 Z
#319
09
b11100010111011111101 Z
#320
b11100010111011111110 Z
#321
19
b11100010111011111111 Z
#322
b11100010111100000000 Z
#323
09
b11100010111100000001 Z
#324
b11100010111100000010 Z
#325
19
b11100010111100000011 Z
#326
b11100010111100000100 Z
#327
09
b11100010111100000101 Z
#328
b11100010111100000110 Z
#329
19
b11100010111100000111 Z
#330
b11100010111100001000 Z
#331
09
b11100010111100001001 Z
#332
b11100010111100001010 Z
#333
19
b11100010111100001011 Z
#334
b11100010111100001100 Z
#335
09
b11100010111100001101 Z
#336
b11100010111100001110 Z
#337
19
b11100010111100001111 Z
#338
b11100010111100010000 Z
#339
09
b11100010111100010001 Z
#340
b11100010111100010010 Z
#341
19
b11100010111100010011 Z
#342
b11100010111100010100 Z
#343
09
b11100010111100010101 Z
#344
b11100010111100010110 Z
#345
19
b11100010111100010111 Z
#346
b11100010111100011000 Z
#347
09
b11100010111100011001 Z
#348
b11100010111100011010 Z
#349
19
b11100010111100011011 Z
#350
b11100010111100011100 Z
#351
09
b11100010111100011101 Z
#352
b11100010111100011110 Z
#353
19
b11100010111100011111 Z
#354
b11100010111100100000 Z
#355
09
b11100010111100100001 Z
#356
b11100010111100100010 Z
#357
19
b11100010111100100011 Z
#358
b11100010111100100100 Z
#359
09
b11100010111100100101 Z
#360
b11100010111100100110 Z
#361
19
b11100010111100100111 Z
#362
b11100010111100101000 Z
#363
09
b11100010111100101001 Z
#364
b11100010111100101010 Z
#365
19
b11100010111100101011 Z
#366
b11100010111100101100 Z
#367
09
b11100010111100101101 Z
#368
b11100010111100101110 Z
#369
19
b11100010111100101111 Z
#370
b11100010111100110000 Z
#371
09
b11100010111100110001 Z
#372
b11100010111100110010 Z
#373
19
b11100010111100110011 Z
#374
b11100010111100110100 Z
#375
09
b11100010111100110101 Z
#376
b11100010111100110110 Z
#377
19
b11100010111100110111 Z
#378
b11100010111100111000 Z
#379
09
b11100010111100111001 Z
#380
b11100010111100111010 Z
#381
b1111111100 "
b10010111 ,
19
b11100010111100111011 Z
#382
b11100010111100111100 Z
#383
09
b11100010111100111101 Z
#384
b11100010111100111110 Z
#385
b1111111101 "
19
b11100010111100111111 Z
#386
b11100010111101000000 Z
#387
09
b11100010111101000001 Z
#388
b11100010111101000010 Z
#389
b1111111110 "
19
b11100010111101000011 Z
#390
b11100010111101000100 Z
#391
09
b11100010111101000101 Z
#392
b11100010111101000110 Z
#393
b1111111111 "
19
b11100010111101000111 Z
#394
b11100010111101001000 Z
#395
09
b11100010111101001001 Z
#396
b11100010111101001010 Z
#397
b0 "
19
b11100010111101001011 Z
#398
b11100010111101001100 Z
#399
09
b11100010111101001101 Z
#400
b11100010111101001110 Z
#401
b1 "
19
b11100010111101001111 Z
#402
b11100010111101010000 Z
#403
09
b11100010111101010001 Z
#404
b11100010111101010010 Z
#405
b10 "
19
b11100010111101010011 Z
#406
b11100010111101010100 Z
#407
09
b11100010111101010101 Z
#408
b11100010111101010110 Z
#409
b11 "
19
b11100010111101010111 Z
#410
b11100010111101011000 Z
#411
09
b11100010111101011001 Z
#412
b11100010111101011010 Z
#413
b100 "
19
b11100010111101011011 Z
#414
b11100010111101011100 Z
#415
09
b11100010111101011101 Z
#416
b11100010111101011110 Z
#417
b101 "
19
b11100010111101011111 Z
#418
b11100010111101100000 Z
#419
09
b11100010111101100001 Z
#420
b11100010111101100010 Z
#421
b110 "
19
b11100010111101100011 Z
#422
b11100010111101100100 Z
#423
09
b11100010111101100101 Z
#424
b11100010111101100110 Z
#425
b111 "
19
b11100010111101100111 Z
#426
b11100010111101101000 Z
#427
09
b11100010111101101001 Z
#428
b11100010111101101010 Z
#429
b1000 "
19
b11100010111101101011 Z
#430
b11100010111101101100 Z
#431
09
b11100010111101101101 Z
#432
b11100010111101101110 Z
#433
b1001 "
19
b11100010111101101111 Z
#434
b11100010111101110000 Z
#435
09
b11100010111101110001 Z
#436
b11100010111101110010 Z
#437
b1010 "
19
b11100010111101110011 Z
#438
b11100010111101110100 Z
#439
09
b11100010111101110101 Z
#440
b11100010111101110110 Z
#441
b1011 "
19
b11100010111101110111 Z
#442
b11100010111101111000 Z
#443
09
b11100010111101111001 Z
#444
b11100010111101111010 Z
#445
b1100 "
19
b11100010111101111011 Z
#446
b11100010111101111100 Z
#447
09
b11100010111101111101 Z
#448
b11100010111101111110 Z
#449
b1101 "
19
b11100010111101111111 Z
#450
b11100010111110000000 Z
#451
09
b11100010111110000001 Z
#452
b11100010111110000010 Z
#453
b1110 "
19
b11100010111110000011 Z
#454
b11100010111110000100 Z
#455
09
b11100010111110000101 Z
#456
b11100010111110000110 Z
#457
b1111 "
19
b11100010111110000111 Z
#458
b11100010111110001000 Z
#459
09
b11100010111110001001 Z
#460
b11100010111110001010 Z
#461
b10000 "
19
b11100010111110001011 Z
#462
b11100010111110001100 Z
#463
09
b11100010111110001101 Z
#464
b11100010111110001110 Z
#465
b10001 "
19
b11100010111110001111 Z
#466
b11100010111110010000 Z
#467
09
b11100010111110010001 Z
#468
b11100010111110010010 Z
#469
b10010 "
19
b11100010111110010011 Z
#470
b11100010111110010100 Z
#471
09
b11100010111110010101 Z
#472
b11100010111110010110 Z
#473
b10011 "
19
b11100010111110010111 Z
#474
b11100010111110011000 Z
#475
09
b11100010111110011001 Z
#476
b11100010111110011010 Z
#477
b10100 "
19
b11100010111110011011 Z
#478
b11100010111110011100 Z
#479
09
b11100010111110011101 Z
#480
b11100010111110011110 Z
#481
b10101 "
19
b11100010111110011111 Z
#482
b11100010111110100000 Z
#483
09
b11100010111110100001 Z
#484
b11100010111110100010 Z
#485
b10110 "
19
b11100010111110100011 Z
#486
b11100010111110100100 Z
#487
09
b11100010111110100101 Z
#488
b11100010111110100110 Z
#489
b10111 "
19
b11100010111110100111 Z
#490
b11100010111110101000 Z
#491
09
b11100010111110101001 Z
#492
b11100010111110101010 Z
#493
b11000 "
19
b11100010111110101011 Z
#494
b11100010111110101100 Z
#495
09
b11100010111110101101 Z
#496
b11100010111110101110 Z
#497
b11001 "
19
b11100010111110101111 Z
#498
b11100010111110110000 Z
#499
09
b11100010111110110001 Z
#500
b11100010111110110010 Z
#501
b11010 "
19
b11100010111110110011 Z
#502
b11100010111110110100 Z
#503
09
b11100010111110110101 Z
#504
b11100010111110110110 Z
#505
b11011 "
19
b11100010111110110111 Z
#506
b11100010111110111000 Z
#507
09
b11100010111110111001 Z
#508
b11100010111110111010 Z
#509
b11100 "
19
b11100010111110111011 Z
#510
b11100010111110111100 Z
#511
09
b11100010111110111101 Z
#512
b11100010111110111110 Z
1&"
#513
b11101 "
19
b11100010111110111111 Z
#514
b11100010111111000000 Z
#515
09
b11100010111111000001 Z
#516
b11100010111111000010 Z
#517
b11110 "
19
b11100010111111000011 Z
#518
b11100010111111000100 Z
#519
09
b11100010111111000101 Z
#520
b11100010111111000110 Z
#521
b11111 "
19
b11100010111111000111 Z
#522
b11100010111111001000 Z
#523
09
b11100010111111001001 Z
#524
b11100010111111001010 Z
#525
b100000 "
19
b11100010111111001011 Z
#526
b11100010111111001100 Z
#527
09
b11100010111111001101 Z
#528
b11100010111111001110 Z
#529
b100001 "
19
b11100010111111001111 Z
#530
b11100010111111010000 Z
#531
09
b11100010111111010001 Z
#532
b11100010111111010010 Z
#533
b100010 "
19
b11100010111111010011 Z
#534
b11100010111111010100 Z
#535
09
b11100010111111010101 Z
#536
b11100010111111010110 Z
#537
b100011 "
19
b11100010111111010111 Z
#538
b11100010111111011000 Z
#539
09
b11100010111111011001 Z
#540
b11100010111111011010 Z
#541
b100100 "
19
b11100010111111011011 Z
#542
b11100010111111011100 Z
#543
09
b11100010111111011101 Z
#544
b11100010111111011110 Z
#545
b100101 "
19
b11100010111111011111 Z
#546
b11100010111111100000 Z
#547
09
b11100010111111100001 Z
#548
b11100010111111100010 Z
#549
b100110 "
19
b11100010111111100011 Z
#550
b11100010111111100100 Z
#551
09
b11100010111111100101 Z
#552
b11100010111111100110 Z
#553
b100111 "
19
b11100010111111100111 Z
#554
b11100010111111101000 Z
#555
09
b11100010111111101001 Z
#556
b11100010111111101010 Z
#557
b101000 "
19
b11100010111111101011 Z
#558
b11100010111111101100 Z
#559
09
b11100010111111101101 Z
#560
b11100010111111101110 Z
#561
b101001 "
19
b11100010111111101111 Z
#562
b11100010111111110000 Z
#563
09
b11100010111111110001 Z
#564
b11100010111111110010 Z
#565
b101010 "
19
b11100010111111110011 Z
#566
b11100010111111110100 Z
#567
09
b11100010111111110101 Z
#568
b11100010111111110110 Z
#569
b101011 "
19
b11100010111111110111 Z
#570
b11100010111111111000 Z
#571
09
b11100010111111111001 Z
#572
b11100010111111111010 Z
#573
b101100 "
19
b11100010111111111011 Z
#574
b11100010111111111100 Z
#575
09
b11100010111111111101 Z
#576
b11100010111111111110 Z
#577
b101101 "
19
b11100010111111111111 Z
#578
b11100011000000000000 Z
#579
09
b11100011000000000001 Z
#580
b11100011000000000010 Z
#581
b101110 "
19
b11100011000000000011 Z
#582
b11100011000000000100 Z
#583
09
b11100011000000000101 Z
#584
b11100011000000000110 Z
#585
b101111 "
19
b11100011000000000111 Z
#586
b11100011000000001000 Z
#587
09
b11100011000000001001 Z
#588
b11100011000000001010 Z
#589
b110000 "
19
b11100011000000001011 Z
#590
b11100011000000001100 Z
#591
09
b11100011000000001101 Z
#592
b11100011000000001110 Z
#593
b110001 "
19
b11100011000000001111 Z
#594
b11100011000000010000 Z
#595
09
b11100011000000010001 Z
#596
b11100011000000010010 Z
#597
b110010 "
19
b11100011000000010011 Z
#598
b11100011000000010100 Z
#599
09
b11100011000000010101 Z
#600
b11100011000000010110 Z
#601
b110011 "
19
b11100011000000010111 Z
#602
b11100011000000011000 Z
#603
09
b11100011000000011001 Z
#604
b11100011000000011010 Z
#605
b110100 "
19
b11100011000000011011 Z
#606
b11100011000000011100 Z
#607
09
b11100011000000011101 Z
#608
b11100011000000011110 Z
#609
b110101 "
19
b11100011000000011111 Z
#610
b11100011000000100000 Z
#611
09
b11100011000000100001 Z
#612
b11100011000000100010 Z
#613
b110110 "
19
b11100011000000100011 Z
#614
b11100011000000100100 Z
#615
09
b11100011000000100101 Z
#616
b11100011000000100110 Z
#617
b110111 "
19
b11100011000000100111 Z
#618
b11100011000000101000 Z
#619
09
b11100011000000101001 Z
#620
b11100011000000101010 Z
#621
b111000 "
19
b11100011000000101011 Z
#622
b11100011000000101100 Z
#623
09
b11100011000000101101 Z
#624
b11100011000000101110 Z
#625
b111001 "
19
b11100011000000101111 Z
#626
b11100011000000110000 Z
#627
09
b11100011000000110001 Z
#628
b11100011000000110010 Z
#629
b111010 "
19
b11100011000000110011 Z
#630
b11100011000000110100 Z
#631
09
b11100011000000110101 Z
#632
b11100011000000110110 Z
#633
b111011 "
19
b11100011000000110111 Z
#634
b11100011000000111000 Z
#635
09
b11100011000000111001 Z
#636
b11100011000000111010 Z
#637
b111100 "
19
b11100011000000111011 Z
#638
b11100011000000111100 Z
#639
09
b11100011000000111101 Z
#640
b11100011000000111110 Z
#641
b111101 "
19
b11100011000000111111 Z
#642
b11100011000001000000 Z
#643
09
b11100011000001000001 Z
#644
b11100011000001000010 Z
#645
b111110 "
19
b11100011000001000011 Z
#646
b11100011000001000100 Z
#647
09
b11100011000001000101 Z
#648
b11100011000001000110 Z
#649
b111111 "
19
b11100011000001000111 Z
#650
b11100011000001001000 Z
#651
09
b11100011000001001001 Z
#652
b11100011000001001010 Z
#653
b1000000 "
19
b11100011000001001011 Z
#654
b11100011000001001100 Z
#655
09
b11100011000001001101 Z
#656
b11100011000001001110 Z
#657
b1000001 "
19
b11100011000001001111 Z
#658
b11100011000001010000 Z
#659
09
b11100011000001010001 Z
#660
b11100011000001010010 Z
#661
b1000010 "
19
b11100011000001010011 Z
#662
b11100011000001010100 Z
#663
09
b11100011000001010101 Z
#664
b11100011000001010110 Z
#665
b1000011 "
19
b11100011000001010111 Z
#666
b11100011000001011000 Z
#667
09
b11100011000001011001 Z
#668
b11100011000001011010 Z
#669
b1000100 "
19
b11100011000001011011 Z
#670
b11100011000001011100 Z
#671
09
b11100011000001011101 Z
#672
b11100011000001011110 Z
#673
b1000101 "
19
b11100011000001011111 Z
#674
b11100011000001100000 Z
#675
09
b11100011000001100001 Z
#676
b11100011000001100010 Z
#677
b1000110 "
19
b11100011000001100011 Z
#678
b11100011000001100100 Z
#679
09
b11100011000001100101 Z
#680
b11100011000001100110 Z
#681
b1000111 "
19
b11100011000001100111 Z
#682
b11100011000001101000 Z
#683
09
b11100011000001101001 Z
#684
b11100011000001101010 Z
#685
b1001000 "
19
b11100011000001101011 Z
#686
b11100011000001101100 Z
#687
09
b11100011000001101101 Z
#688
b11100011000001101110 Z
#689
b1001001 "
19
b11100011000001101111 Z
#690
b11100011000001110000 Z
#691
09
b11100011000001110001 Z
#692
b11100011000001110010 Z
#693
b1001010 "
19
b11100011000001110011 Z
#694
b11100011000001110100 Z
#695
09
b11100011000001110101 Z
#696
b11100011000001110110 Z
#697
b1001011 "
19
b11100011000001110111 Z
#698
b11100011000001111000 Z
#699
09
b11100011000001111001 Z
#700
b11100011000001111010 Z
#701
b1001100 "
19
b11100011000001111011 Z
#702
b11100011000001111100 Z
#703
09
b11100011000001111101 Z
#704
b11100011000001111110 Z
#705
b1001101 "
19
b11100011000001111111 Z
#706
b11100011000010000000 Z
#707
09
b11100011000010000001 Z
#708
b11100011000010000010 Z
#709
b1001110 "
19
b11100011000010000011 Z
#710
b11100011000010000100 Z
#711
09
b11100011000010000101 Z
#712
b11100011000010000110 Z
#713
b1001111 "
19
b11100011000010000111 Z
#714
b11100011000010001000 Z
#715
09
b11100011000010001001 Z
#716
b11100011000010001010 Z
#717
b1010000 "
19
b11100011000010001011 Z
#718
b11100011000010001100 Z
#719
09
b11100011000010001101 Z
#720
b11100011000010001110 Z
#721
b1010001 "
19
b11100011000010001111 Z
#722
b11100011000010010000 Z
#723
09
b11100011000010010001 Z
#724
b11100011000010010010 Z
#725
b1010010 "
19
b11100011000010010011 Z
#726
b11100011000010010100 Z
#727
09
b11100011000010010101 Z
#728
b11100011000010010110 Z
#729
b1010011 "
19
b11100011000010010111 Z
#730
b11100011000010011000 Z
#731
09
b11100011000010011001 Z
#732
b11100011000010011010 Z
#733
b1010100 "
19
b11100011000010011011 Z
#734
b11100011000010011100 Z
#735
09
b11100011000010011101 Z
#736
b11100011000010011110 Z
#737
b1010101 "
19
b11100011000010011111 Z
#738
b11100011000010100000 Z
#739
09
b11100011000010100001 Z
#740
b11100011000010100010 Z
#741
b1010110 "
19
b11100011000010100011 Z
#742
b11100011000010100100 Z
#743
09
b11100011000010100101 Z
#744
b11100011000010100110 Z
#745
b1010111 "
19
b11100011000010100111 Z
#746
b11100011000010101000 Z
#747
09
b11100011000010101001 Z
#748
b11100011000010101010 Z
#749
b1011000 "
19
b11100011000010101011 Z
#750
b11100011000010101100 Z
#751
09
b11100011000010101101 Z
#752
b11100011000010101110 Z
#753
b1011001 "
19
b11100011000010101111 Z
#754
b11100011000010110000 Z
#755
09
b11100011000010110001 Z
#756
b11100011000010110010 Z
#757
b1011010 "
19
b11100011000010110011 Z
#758
b11100011000010110100 Z
#759
09
b11100011000010110101 Z
#760
b11100011000010110110 Z
#761
b1011011 "
19
b11100011000010110111 Z
#762
b11100011000010111000 Z
#763
09
b11100011000010111001 Z
#764
b11100011000010111010 Z
#765
b1011100 "
19
b11100011000010111011 Z
#766
b11100011000010111100 Z
#767
09
b11100011000010111101 Z
#768
b11100011000010111110 Z
#769
b1011101 "
19
b11100011000010111111 Z
#770
b11100011000011000000 Z
#771
09
b11100011000011000001 Z
#772
b11100011000011000010 Z
#773
b1011110 "
19
b11100011000011000011 Z
#774
b11100011000011000100 Z
#775
09
b11100011000011000101 Z
#776
b11100011000011000110 Z
#777
b1011111 "
19
b11100011000011000111 Z
#778
b11100011000011001000 Z
#779
09
b11100011000011001001 Z
#780
b11100011000011001010 Z
#781
b1100000 "
19
b11100011000011001011 Z
#782
b11100011000011001100 Z
#783
09
b11100011000011001101 Z
#784
b11100011000011001110 Z
#785
b1100001 "
19
b11100011000011001111 Z
#786
b11100011000011010000 Z
#787
09
b11100011000011010001 Z
#788
b11100011000011010010 Z
#789
b1100010 "
19
b11100011000011010011 Z
#790
b11100011000011010100 Z
#791
09
b11100011000011010101 Z
#792
b11100011000011010110 Z
#793
b1100011 "
19
b11100011000011010111 Z
#794
b11100011000011011000 Z
#795
09
b11100011000011011001 Z
#796
b11100011000011011010 Z
#797
b1100100 "
19
b11100011000011011011 Z
#798
b11100011000011011100 Z
#799
09
b11100011000011011101 Z
#800
b11100011000011011110 Z
#801
b1100101 "
19
b11100011000011011111 Z
#802
b11100011000011100000 Z
#803
09
b11100011000011100001 Z
#804
b11100011000011100010 Z
#805
b1100110 "
19
b11100011000011100011 Z
#806
b11100011000011100100 Z
#807
09
b11100011000011100101 Z
#808
b11100011000011100110 Z
#809
b1100111 "
19
b11100011000011100111 Z
#810
b11100011000011101000 Z
#811
09
b11100011000011101001 Z
#812
b11100011000011101010 Z
#813
b1101000 "
19
b11100011000011101011 Z
#814
b11100011000011101100 Z
#815
09
b11100011000011101101 Z
#816
b11100011000011101110 Z
#817
b1101001 "
19
b11100011000011101111 Z
#818
b11100011000011110000 Z
#819
09
b11100011000011110001 Z
#820
b11100011000011110010 Z
#821
b1101010 "
19
b11100011000011110011 Z
#822
b11100011000011110100 Z
#823
09
b11100011000011110101 Z
#824
b11100011000011110110 Z
#825
b1101011 "
19
b11100011000011110111 Z
